Statistics and Quantitative Methods (S1)
…
---

- English L1 and L2 speakers (L2 speakers are native speakers of Cantonese).

- Lexical decision task (Word vs Non-Word).

- Target: *unkindness* ([[un]-[kind]]-ness).

- Primes: *prolong* (Unrelated), *unkind* (Constituent), *kindness* (Non-Constituent).

---

```
## # A tibble: 1,950 × 3
##    ID    accuracy  Relation_type 
##    <chr> <fct>     <fct>         
##  1 L1_01 correct   Unrelated     
##  2 L1_01 correct   Constituent   
##  3 L1_01 correct   Unrelated     
##  4 L1_01 correct   Constituent   
##  5 L1_01 incorrect Unrelated     
##  6 L1_01 correct   Unrelated     
##  7 L1_01 correct   Constituent   
##  8 L1_01 correct   NonConstituent
##  9 L1_01 correct   NonConstituent
## 10 L1_01 correct   Constituent   
## # … with 1,940 more rows
```
…
class: center middle inverse

# DICHOTOMOUS VARIABLES: ACCURACY

---

layout: true

# Dichotomous variables: Accuracy

---

```
## # A tibble: 1,950 × 3
##    ID    accuracy  Relation_type 
##    <chr> <fct>     <fct>         
##  1 L1_01 correct   Unrelated     
##  2 L1_01 correct   Constituent   
##  3 L1_01 correct   Unrelated     
##  4 L1_01 correct   Constituent   
##  5 L1_01 incorrect Unrelated     
##  6 L1_01 correct   Unrelated     
##  7 L1_01 correct   Constituent   
##  8 L1_01 correct   NonConstituent
##  9 L1_01 correct   NonConstituent
## 10 L1_01 correct   Constituent   
## # … with 1,940 more rows
```
…
layout: false
class: center middle inverse

# COUNTS: CONTINGENT TALKS

---

layout: true

# Counts: Contingent talks

---

```
## # A tibble: 1,620 × 4
##    dyad  background count    ct
##    <chr> <chr>      <dbl> <dbl>
##  1 b01   Bengali        5     1
##  2 b01   Bengali        0     0
##  3 b01   Bengali        0     0
##  4 b01   Bengali        0     0
##  5 b01   Bengali        0     0
##  6 b01   Bengali        0     0
##  7 b01   Bengali        0     0
##  8 b01   Bengali        0     0
##  9 b01   Bengali        0     0
## 10 b01   Bengali        8     3
## # … with 1,610 more rows
```
…
