Statistics and Quantitative Methods (S1)
…
---

```r
mono <- rnorm(n = 100, mean = 620, sd = 200)
bi <- rnorm(100, 680, 200)

exp <- tibble(
  rt = c(mono, bi),
  group = rep(c("mono", "bi"), each = 100)
)
exp
```

```
## # A tibble: 200 × 2
##       rt group
##    <dbl> <chr>
##  1  405. mono 
##  2  630. mono 
##  3  667. mono 
##  4  292. mono 
##  5  525. mono 
##  6  699. mono 
##  7  507. mono 
##  8  954. mono 
##  9  199. mono 
## 10  671. mono 
## # … with 190 more rows
```
…
