Statistics and Quantitative Methods (S1)
…
---

layout: true

# Shallow morphological parsing

---

```r
shallow %>% select(ID, Group, Target, Relation_type, Branching, accuracy)
```

```
## # A tibble: 1,950 × 6
##    ID    Group Target      Relation_type  Branching accuracy 
##    <chr> <chr> <chr>       <fct>          <chr>     <chr>    
##  1 L1_01 L1    unawareness Unrelated      Left      correct  
##  2 L1_01 L1    unholiness  Constituent    Left      correct  
##  3 L1_01 L1    unhappiness Unrelated      Left      correct  
##  4 L1_01 L1    unsharpness Constituent    Left      correct  
##  5 L1_01 L1    unripeness  Unrelated      Left      incorrect
##  6 L1_01 L1    undeniable  Unrelated      Right     correct  
##  7 L1_01 L1    unskillful  Constituent    Right     correct  
##  8 L1_01 L1    unkindness  NonConstituent Left      correct  
##  9 L1_01 L1    unwariness  NonConstituent Left      correct  
## 10 L1_01 L1    unclearness Constituent    Left      correct  
## # … with 1,940 more rows
```
…
