Statistics and Quantitative Methods (S1)
…
---

To check what the data looks like, just call the data in the console, and you will see the first few lines of the data table.

```r
glot_aes
```

```
## # A tibble: 8,345 × 18
##    ID           Langu…¹ Param…² Value Code_ID Comment Source codeR…³ AES   Name 
##    <chr>        <chr>   <chr>   <chr> <chr>   <chr>   <chr>  <lgl>   <fct> <chr>
##  1 kolp1236-aes kolp12… aes     3     aes-sh… Kol (1… hh:he… NA      shif… Kol …
##  2 tana1288-aes tana12… aes     3     aes-sh… Tanahm… hh:he… NA      shif… Tana…
##  3 touo1238-aes touo12… aes     3     aes-sh… Touo (… hh:he… NA      shif… Touo 
##  4 bert1248-aes bert12… aes     3     aes-sh… Fadash… hh:he… NA      shif… Berta
##  5 sius1254-aes sius12… aes     6     aes-ex… Siusla… hh:he… NA      exti… Sius…
##  6 cent2045-aes cent20… aes     6     aes-ex… Jalaa … <NA>   NA      exti… Jalaa
##  7 else1239-aes else12… aes     3     aes-sh… Elseng… hh:he… NA      shif… Else…
##  8 taia1239-aes taia12… aes     4     aes-mo… Taiap … hh:he… NA      mori… Taiap
##  9 pyuu1245-aes pyuu12… aes     3     aes-sh… Pyu (4… hh:he… NA      shif… Pyu  
## 10 mato1253-aes mato12… aes     6     aes-ex… Arára … hh:he… NA      exti… Mato…
## # … with 8,335 more rows, 8 more variables: Macroarea <chr>, Latitude <dbl>,
## #   Longitude <dbl>, Glottocode <chr>, ISO639P3code <chr>, Countries <chr>,
## #   Family_ID <chr>, Language_ID.y <chr>, and abbreviated variable names
## #   ¹​Language_ID, ²​Parameter_ID, ³​codeReference
```
…
# Infant gestures

---

Now, let's use the `gestures` data.

```r
# This data table is in the sqmf package.
data("gestures")
gestures
```

```
## # A tibble: 1,620 × 11
##    dyad  backgro…¹ months task  gesture count…² count ct_raw    ct pro_r…³    id
##    <chr> <chr>      <dbl> <chr> <chr>     <dbl> <dbl>  <dbl> <dbl> <chr>   <dbl>
##  1 b01   Bengali       10 five  reach         5     5      1     1 no          3
##  2 b01   Bengali       10 five  point         0     0      0     0 no          2
##  3 b01   Bengali       10 five  ho_gv         0     0      0     0 no          1
##  4 b01   Bengali       10 tp1   reach         0     0      0     0 no          6
##  5 b01   Bengali       10 tp1   point         0     0      0     0 no          5
##  6 b01   Bengali       10 tp1   ho_gv         0     0      0     0 no          4
##  7 b01   Bengali       10 tp2   reach         0     0      0     0 no          9
##  8 b01   Bengali       10 tp2   point         0     0      0     0 no          8
##  9 b01   Bengali       10 tp2   ho_gv         0     0      0     0 no          7
## 10 b01   Bengali       11 five  reach         7     8      3     3 yes         3
## # … with 1,610 more rows, and abbreviated variable names ¹​background,
## #   ²​count_raw, ³​pro_rata
```
…
# Lexical decision task

---

Data from MALD.

```r
data("mald_1_1")
mald_1_1
```

```
## # A tibble: 5,000 × 7
##    Subject Item        IsWord PhonLev    RT ACC     RT_log
##    <chr>   <chr>       <fct>    <dbl> <int> <fct>    <dbl>
##  1 15308   acreage     TRUE      6.01   617 correct   6.42
##  2 15308   maxraezaxr  FALSE     6.78  1198 correct   7.09
##  3 15308   prognosis   TRUE      8.14   954 correct   6.86
##  4 15308   giggles     TRUE      6.22   579 correct   6.36
##  5 15308   baazh       FALSE     6.13  1011 correct   6.92
##  6 15308   unflagging  TRUE      7.66  1402 correct   7.25
##  7 15308   ihnpaykaxrz FALSE     7.47  1059 correct   6.97
##  8 15308   hawk        TRUE      6.09   739 correct   6.61
##  9 15308   assessing   TRUE      6.37   789 correct   6.67
## 10 15308   mehlaxl     FALSE     5.80   926 correct   6.83
## # … with 4,990 more rows
```
…
