Statistics and Quantitative Methods (S1)
…
---

layout: true

## Repeated measures: Multiple subjects

---

```r
mald_1_1
```

```
## # A tibble: 5,000 × 7
##    Subject Item        IsWord PhonLev    RT ACC     RT_log
##    <chr>   <chr>       <fct>    <dbl> <int> <fct>    <dbl>
##  1 15308   acreage     TRUE      6.01   617 correct   6.42
##  2 15308   maxraezaxr  FALSE     6.78  1198 correct   7.09
##  3 15308   prognosis   TRUE      8.14   954 correct   6.86
##  4 15308   giggles     TRUE      6.22   579 correct   6.36
##  5 15308   baazh       FALSE     6.13  1011 correct   6.92
##  6 15308   unflagging  TRUE      7.66  1402 correct   7.25
##  7 15308   ihnpaykaxrz FALSE     7.47  1059 correct   6.97
##  8 15308   hawk        TRUE      6.09   739 correct   6.61
##  9 15308   assessing   TRUE      6.37   789 correct   6.67
## 10 15308   mehlaxl     FALSE     5.80   926 correct   6.83
## # … with 4,990 more rows
```
…
<img src="index_files/figure-html/mald-lm-lm-p-1.png" height="400px" style="display: block; margin: auto;" />

---

Let's check the **conditional means**

```r
mald_lm_2_r <- ranef(mald_lm_2) %>% as_tibble()
mald_lm_2_r
```

```
## # A tibble: 50 × 5
##    grpvar  term        grp    condval condsd
##    <chr>   <fct>       <fct>    <dbl>  <dbl>
##  1 Subject (Intercept) 15308  0.450    0.234
##  2 Subject (Intercept) 15345  0.0591   0.221
##  3 Subject (Intercept) 15373 -0.0208   0.217
##  4 Subject (Intercept) 15384 -0.392    0.201
##  5 Subject (Intercept) 15388  0.00308  0.216
##  6 Subject (Intercept) 15540 -0.388    0.204
##  7 Subject (Intercept) 15739 -0.147    0.215
##  8 Subject (Intercept) 15903 -0.251    0.208
##  9 Subject (Intercept) 16018 -0.260    0.209
## 10 Subject (Intercept) 16054 -0.402    0.205
## # … with 40 more rows
```
…
<img src="index_files/figure-html/mald-lm-lm-3-p-1.png" height="400px" style="display: block; margin: auto;" />

---

Let's check the **conditional means**

```r
mald_lm_3_r <- ranef(mald_lm_3) %>% as_tibble()
mald_lm_3_r
```

```
## # A tibble: 100 × 5
##    grpvar  term        grp   condval condsd
##    <chr>   <fct>       <fct>   <dbl>  <dbl>
##  1 Subject (Intercept) 15308  0.124   0.340
##  2 Subject (Intercept) 15345  0.714   0.358
##  3 Subject (Intercept) 15373 -0.0677  0.321
##  4 Subject (Intercept) 15384  0.380   0.350
##  5 Subject (Intercept) 15388  0.229   0.349
##  6 Subject (Intercept) 15540 -0.415   0.297
##  7 Subject (Intercept) 15739 -0.689   0.294
##  8 Subject (Intercept) 15903  0.920   0.367
##  9 Subject (Intercept) 16018  0.0954  0.329
## 10 Subject (Intercept) 16054  0.967   0.372
## # … with 90 more rows
```
…
## Repeated measures: Multiple subjects and words

---

```r
shallow_filt <- shallow %>%
  filter(Branching == "Left")

shallow_filt
```

```
## # A tibble: 1,170 × 11
##    Group ID    List  Target    RT RT_log Criti…¹ Word_…² Relat…³ Branc…⁴ accur…⁵
##    <chr> <chr> <chr> <chr>  <dbl>  <dbl> <chr>   <chr>   <fct>   <chr>   <chr>  
##  1 L1    L1_01 A     unawa…   603   6.40 Critic… Word    Unrela… Left    correct
##  2 L1    L1_01 A     unhol…   739   6.61 Critic… Word    Consti… Left    correct
##  3 L1    L1_01 A     unhap…   370   5.91 Critic… Word    Unrela… Left    correct
##  4 L1    L1_01 A     unsha…   821   6.71 Critic… Word    Consti… Left    correct
##  5 L1    L1_01 A     unrip…  1035   6.94 Critic… Word    Unrela… Left    incorr…
##  6 L1    L1_01 A     unkin…   498   6.21 Critic… Word    NonCon… Left    correct
##  7 L1    L1_01 A     unwar…  1133   7.03 Critic… Word    NonCon… Left    correct
##  8 L1    L1_01 A     uncle…   513   6.24 Critic… Word    Consti… Left    correct
##  9 L1    L1_01 A     reobt…   964   6.87 Critic… Word    NonCon… Left    incorr…
## 10 L1    L1_01 A     resea…   709   6.56 Critic… Word    Unrela… Left    correct
## # … with 1,160 more rows, and abbreviated variable names ¹​Critical_Filler,
## #   ²​Word_Nonword, ³​Relation_type, ⁴​Branching, ⁵​accuracy
```
…
<img src="index_files/figure-html/shal-lm-p-1.png" height="400px" style="display: block; margin: auto;" />

---

```r
shal_lm_r <- ranef(shal_lm) %>% as_tibble()
shal_lm_r
```

```
## # A tibble: 83 × 5
##    grpvar term        grp   condval condsd
##    <chr>  <fct>       <fct>   <dbl>  <dbl>
##  1 ID     (Intercept) L1_01  -106.    63.9
##  2 ID     (Intercept) L1_02    13.9   63.9
##  3 ID     (Intercept) L1_03   -12.6   63.9
##  4 ID     (Intercept) L1_05   164.    63.9
##  5 ID     (Intercept) L1_06   -83.9   63.9
##  6 ID     (Intercept) L1_07   -55.3   63.9
##  7 ID     (Intercept) L1_08   -16.9   63.9
##  8 ID     (Intercept) L1_09  -101.    63.9
##  9 ID     (Intercept) L1_10    29.2   63.9
## 10 ID     (Intercept) L1_11  -167.    63.9
## # … with 73 more rows
```
…
